ANA 515
…
# 4.    Describe your data set 
#Number of Rows
nrow(tidy_data)

## [1] 725055

#Number of Columns
ncol(tidy_data)

## [1] 4

print(tidy_data)

## # A tibble: 725,055 x 4
##    book                linenumber chapter word       
##    <fct>                    <int>   <int> <chr>      
##  1 Sense & Sensibility          1       0 sense      
##  2 Sense & Sensibility          1       0 and        
##  3 Sense & Sensibility          1       0 sensibility
##  4 Sense & Sensibility          3       0 by         
##  5 Sense & Sensibility          3       0 jane       
##  6 Sense & Sensibility          3       0 austen     
##  7 Sense & Sensibility          5       0 1811       
##  8 Sense & Sensibility         10       1 chapter    
##  9 Sense & Sensibility         10       1 1          
## 10 Sense & Sensibility         13       1 the        
## # ... with 725,045 more rows
…
# 7.produce and discuss the output 
# Collect all positive words like well, good, happy etc., together and store in "positive_senti" variable
positive_senti <- get_sentiments("bing") %>%
 filter(sentiment == "positive")
tidy_data %>%
 filter(book == "Emma") %>%
 semi_join(positive_senti) %>%
 count(word, sort = TRUE)

## Joining, by = "word"

## # A tibble: 668 x 2
##    word         n
##    <chr>    <int>
##  1 well       401
##  2 good       359
##  3 great      264
##  4 like       200
##  5 better     173
##  6 enough     129
##  7 happy      125
##  8 love       117
##  9 pleasure   115
## 10 right       92
## # ... with 658 more rows
…
